-------------------------------------------------------------------------------
Test set: pocspock.SaladaTest
-------------------------------------------------------------------------------
Tests run: 1, Failures: 1, Errors: 0, Skipped: 0, Time elapsed: 1.111 sec <<< FAILURE!
garanta que a salada possua 4 ou mais frutas(pocspock.SaladaTest)  Time elapsed: 0.103 sec  <<< FAILURE!
Condition not satisfied:

salada.size() >= 4
|      |      |
|      3      false
[abacaxi, maça, uva]

	at pocspock.SaladaTest.garanta que a salada possua 4 ou mais frutas(SaladaTest.groovy:17)

